{
  "baseUrl": "http://localhost:3000",
  "integrationFolder": "e2e",
  "fixturesFolder": "fixtures",
  "pluginsFile": "plugins",
  "screenshotsFolder": "screenshots",
  "supportFile": "support",
  "videosFolder": "videos",
  "reporter": "junit",
  "reporterOptions": {
    "mochaFile": "junit-[hash].xml",
    "toConsole": true
  }
}
